2.06e+06		6.85958e-10
2.12869e+06		6.86026e-10
2.19738e+06		6.86094e-10
2.26607e+06		6.86162e-10
2.33476e+06		6.8623e-10
2.40345e+06		6.86298e-10
2.47214e+06		6.86366e-10
2.54083e+06		6.86434e-10
2.60952e+06		6.86502e-10
2.67821e+06		6.8657e-10
2.7469e+06		6.86638e-10
2.81559e+06		6.86706e-10
2.88428e+06		6.86774e-10
2.95297e+06		6.86842e-10
3.02166e+06		6.8691e-10
3.09035e+06		6.86978e-10
3.15904e+06		6.87046e-10
3.22773e+06		6.87114e-10
3.29642e+06		6.87182e-10
3.36511e+06		6.8725e-10
3.4338e+06		6.87318e-10
3.50249e+06		6.87386e-10
3.57118e+06		6.87454e-10
3.63987e+06		6.87522e-10
3.70856e+06		6.8759e-10
3.77725e+06		6.87659e-10
3.84594e+06		6.87727e-10
3.91463e+06		6.87795e-10
3.98332e+06		6.87863e-10
4.05201e+06		6.87931e-10
4.1207e+06		6.87999e-10
4.18939e+06		6.88067e-10
4.25808e+06		6.88136e-10
4.32677e+06		6.88204e-10
4.39546e+06		6.88272e-10
4.46415e+06		6.8834e-10
4.53284e+06		6.88409e-10
4.60153e+06		6.88477e-10
4.67022e+06		6.88545e-10
4.73891e+06		6.88613e-10
4.8076e+06		6.88682e-10
4.87629e+06		6.8875e-10
4.94498e+06		6.88818e-10
5.01367e+06		6.88886e-10
5.08236e+06		6.88955e-10
5.15105e+06		6.89023e-10
5.21974e+06		6.89091e-10
5.28843e+06		6.8916e-10
5.35712e+06		6.89228e-10
5.42581e+06		6.89296e-10
5.4945e+06		6.89365e-10
5.56319e+06		6.89433e-10
5.63188e+06		6.89502e-10
5.70057e+06		6.8957e-10
5.76926e+06		6.89638e-10
5.83795e+06		6.89707e-10
5.90664e+06		6.89775e-10
5.97533e+06		6.89844e-10
6.04402e+06		6.89912e-10
6.11271e+06		6.89981e-10
6.1814e+06		6.90049e-10
6.25009e+06		6.90118e-10
6.31878e+06		6.90186e-10
6.38747e+06		6.90255e-10
6.45616e+06		6.90323e-10
6.52485e+06		6.90392e-10
6.59354e+06		6.9046e-10
6.66223e+06		6.90529e-10
6.73092e+06		6.90597e-10
6.79961e+06		6.90666e-10
6.8683e+06		6.90735e-10
6.93699e+06		6.90803e-10
7.00568e+06		6.90872e-10
7.07437e+06		6.9094e-10
7.14306e+06		6.91009e-10
7.21175e+06		6.91078e-10
7.28044e+06		6.91146e-10
7.34913e+06		6.91215e-10
7.41782e+06		6.91284e-10
7.48651e+06		6.91352e-10
7.5552e+06		6.91421e-10
7.62389e+06		6.9149e-10
7.69258e+06		6.91558e-10
7.76127e+06		6.91627e-10
7.82996e+06		6.91696e-10
7.89865e+06		6.91764e-10
7.96734e+06		6.91833e-10
8.03603e+06		6.91902e-10
8.10472e+06		6.91971e-10
8.17341e+06		6.92039e-10
8.2421e+06		6.92108e-10
8.31079e+06		6.92177e-10
8.37948e+06		6.92246e-10
8.44817e+06		6.92315e-10
8.51686e+06		6.92384e-10
8.58555e+06		6.92452e-10
8.65424e+06		6.92521e-10
8.72293e+06		6.9259e-10
8.79162e+06		6.92659e-10
8.86031e+06		6.92728e-10
8.929e+06		6.92797e-10
8.99769e+06		6.92866e-10
9.06638e+06		6.92934e-10
9.13507e+06		6.93003e-10
9.20376e+06		6.93072e-10
9.27245e+06		6.93141e-10
9.34114e+06		6.9321e-10
9.40983e+06		6.93279e-10
9.47852e+06		6.93348e-10
9.54721e+06		6.93417e-10
9.6159e+06		6.93486e-10
9.68459e+06		6.93555e-10
9.75328e+06		6.93624e-10
9.82197e+06		6.93693e-10
9.89066e+06		6.93762e-10
9.95935e+06		6.93831e-10
1.0028e+07		6.939e-10
1.00967e+07		6.93969e-10
1.01654e+07		6.94038e-10
1.02341e+07		6.94107e-10
1.03028e+07		6.94177e-10
1.03715e+07		6.94246e-10
1.04402e+07		6.94315e-10
1.05089e+07		6.94384e-10
1.05776e+07		6.94453e-10
1.06462e+07		6.94522e-10
1.07149e+07		6.94591e-10
1.07836e+07		6.94661e-10
1.08523e+07		6.9473e-10
1.0921e+07		6.94799e-10
1.09897e+07		6.94868e-10
1.10584e+07		6.94937e-10
1.11271e+07		6.95007e-10
1.11958e+07		6.95076e-10
1.12645e+07		6.95145e-10
1.13332e+07		6.95214e-10
1.14018e+07		6.95283e-10
1.14705e+07		6.95353e-10
1.15392e+07		6.95422e-10
1.16079e+07		6.95491e-10
1.16766e+07		6.95561e-10
1.17453e+07		6.9563e-10
1.1814e+07		6.95699e-10
1.18827e+07		6.95769e-10
1.19514e+07		6.95838e-10
1.202e+07		6.95907e-10
1.20887e+07		6.95977e-10
1.21574e+07		6.96046e-10
1.22261e+07		6.96115e-10
1.22948e+07		6.96185e-10
1.23635e+07		6.96254e-10
1.24322e+07		6.96324e-10
1.25009e+07		6.96393e-10
1.25696e+07		6.96462e-10
1.26383e+07		6.96532e-10
1.2707e+07		6.96601e-10
1.27756e+07		6.96671e-10
1.28443e+07		6.9674e-10
1.2913e+07		6.9681e-10
1.29817e+07		6.96879e-10
1.30504e+07		6.96949e-10
1.31191e+07		6.97018e-10
1.31878e+07		6.97088e-10
1.32565e+07		6.97157e-10
1.33252e+07		6.97227e-10
1.33938e+07		6.97296e-10
1.34625e+07		6.97366e-10
1.35312e+07		6.97436e-10
1.35999e+07		6.97505e-10
1.36686e+07		6.97575e-10
1.37373e+07		6.97644e-10
1.3806e+07		6.97714e-10
1.38747e+07		6.97784e-10
1.39434e+07		6.97853e-10
1.40121e+07		6.97923e-10
1.40808e+07		6.97993e-10
1.41494e+07		6.98062e-10
1.42181e+07		6.98132e-10
1.42868e+07		6.98202e-10
1.43555e+07		6.98271e-10
1.44242e+07		6.98341e-10
1.44929e+07		6.98411e-10
1.45616e+07		6.98481e-10
1.46303e+07		6.9855e-10
1.4699e+07		6.9862e-10
1.47676e+07		6.9869e-10
1.48363e+07		6.9876e-10
1.4905e+07		6.98829e-10
1.49737e+07		6.98899e-10
1.50424e+07		6.98969e-10
1.51111e+07		6.99039e-10
1.51798e+07		6.99109e-10
1.52485e+07		6.99179e-10
1.53172e+07		6.99248e-10
1.53859e+07		6.99318e-10
1.54546e+07		6.99388e-10
1.55232e+07		6.99458e-10
1.55919e+07		6.99528e-10
1.56606e+07		6.99598e-10
1.57293e+07		6.99668e-10
1.5798e+07		6.99738e-10
1.58667e+07		6.99808e-10
1.59354e+07		6.99878e-10
1.60041e+07		6.99947e-10
1.60728e+07		7.00017e-10
1.61414e+07		7.00087e-10
1.62101e+07		7.00157e-10
1.62788e+07		7.00227e-10
1.63475e+07		7.00297e-10
1.64162e+07		7.00367e-10
1.64849e+07		7.00437e-10
1.65536e+07		7.00508e-10
1.66223e+07		7.00578e-10
1.6691e+07		7.00648e-10
1.67597e+07		7.00718e-10
1.68284e+07		7.00788e-10
1.6897e+07		7.00858e-10
1.69657e+07		7.00928e-10
1.70344e+07		7.00998e-10
1.71031e+07		7.01068e-10
1.71718e+07		7.01138e-10
1.72405e+07		7.01208e-10
1.73092e+07		7.01279e-10
1.73779e+07		7.01349e-10
1.74466e+07		7.01419e-10
1.75152e+07		7.01489e-10
1.75839e+07		7.01559e-10
1.76526e+07		7.0163e-10
1.77213e+07		7.017e-10
1.779e+07		7.0177e-10
1.78587e+07		7.0184e-10
1.79274e+07		7.01911e-10
1.79961e+07		7.01981e-10
1.80648e+07		7.02051e-10
1.81335e+07		7.02121e-10
1.82022e+07		7.02192e-10
1.82708e+07		7.02262e-10
1.83395e+07		7.02332e-10
1.84082e+07		7.02403e-10
1.84769e+07		7.02473e-10
1.85456e+07		7.02543e-10
1.86143e+07		7.02614e-10
1.8683e+07		7.02684e-10
1.87517e+07		7.02754e-10
1.88204e+07		7.02825e-10
1.8889e+07		7.02895e-10
1.89577e+07		7.02966e-10
1.90264e+07		7.03036e-10
1.90951e+07		7.03106e-10
1.91638e+07		7.03177e-10
1.92325e+07		7.03247e-10
1.93012e+07		7.03318e-10
1.93699e+07		7.03388e-10
1.94386e+07		7.03459e-10
1.95073e+07		7.03529e-10
1.9576e+07		7.036e-10
1.96446e+07		7.0367e-10
1.97133e+07		7.03741e-10
1.9782e+07		7.03811e-10
1.98507e+07		7.03882e-10
1.99194e+07		7.03952e-10
1.99881e+07		7.04023e-10
2.00568e+07		7.04094e-10
2.01255e+07		7.04164e-10
2.01942e+07		7.04235e-10
2.02628e+07		7.04305e-10
2.03315e+07		7.04376e-10
2.04002e+07		7.04447e-10
2.04689e+07		7.04517e-10
2.05376e+07		7.04588e-10
2.06063e+07		7.04659e-10
2.0675e+07		7.04729e-10
2.07437e+07		7.048e-10
2.08124e+07		7.04871e-10
2.08811e+07		7.04941e-10
2.09498e+07		7.05012e-10
2.10184e+07		7.05083e-10
2.10871e+07		7.05154e-10
2.11558e+07		7.05224e-10
2.12245e+07		7.05295e-10
2.12932e+07		7.05366e-10
2.13619e+07		7.05437e-10
2.14306e+07		7.05507e-10
2.14993e+07		7.05578e-10
2.1568e+07		7.05649e-10
2.16366e+07		7.0572e-10
2.17053e+07		7.05791e-10
2.1774e+07		7.05861e-10
2.18427e+07		7.05932e-10
2.19114e+07		7.06003e-10
2.19801e+07		7.06074e-10
2.20488e+07		7.06145e-10
2.21175e+07		7.06216e-10
2.21862e+07		7.06287e-10
2.22549e+07		7.06358e-10
2.23236e+07		7.06429e-10
2.23922e+07		7.065e-10
2.24609e+07		7.06571e-10
2.25296e+07		7.06641e-10
2.25983e+07		7.06712e-10
2.2667e+07		7.06783e-10
2.27357e+07		7.06854e-10
2.28044e+07		7.06925e-10
2.28731e+07		7.06996e-10
2.29418e+07		7.07067e-10
2.30104e+07		7.07139e-10
2.30791e+07		7.0721e-10
2.31478e+07		7.07281e-10
2.32165e+07		7.07352e-10
2.32852e+07		7.07423e-10
2.33539e+07		7.07494e-10
2.34226e+07		7.07565e-10
2.34913e+07		7.07636e-10
2.356e+07		7.07707e-10
2.36287e+07		7.07778e-10
2.36974e+07		7.07849e-10
2.3766e+07		7.07921e-10
2.38347e+07		7.07992e-10
2.39034e+07		7.08063e-10
2.39721e+07		7.08134e-10
2.40408e+07		7.08205e-10
2.41095e+07		7.08277e-10
2.41782e+07		7.08348e-10
2.42469e+07		7.08419e-10
2.43156e+07		7.0849e-10
2.43842e+07		7.08561e-10
2.44529e+07		7.08633e-10
2.45216e+07		7.08704e-10
2.45903e+07		7.08775e-10
2.4659e+07		7.08847e-10
2.47277e+07		7.08918e-10
2.47964e+07		7.08989e-10
2.48651e+07		7.09061e-10
2.49338e+07		7.09132e-10
2.50025e+07		7.09203e-10
2.50712e+07		7.09275e-10
2.51398e+07		7.09346e-10
2.52085e+07		7.09417e-10
2.52772e+07		7.09489e-10
2.53459e+07		7.0956e-10
2.54146e+07		7.09632e-10
2.54833e+07		7.09703e-10
2.5552e+07		7.09774e-10
2.56207e+07		7.09846e-10
2.56894e+07		7.09917e-10
2.5758e+07		7.09989e-10
2.58267e+07		7.1006e-10
2.58954e+07		7.10132e-10
2.59641e+07		7.10203e-10
2.60328e+07		7.10275e-10
2.61015e+07		7.10346e-10
2.61702e+07		7.10418e-10
2.62389e+07		7.10489e-10
2.63076e+07		7.10561e-10
2.63763e+07		7.10632e-10
2.6445e+07		7.10704e-10
2.65136e+07		7.10776e-10
2.65823e+07		7.10847e-10
2.6651e+07		7.10919e-10
2.67197e+07		7.1099e-10
2.67884e+07		7.11062e-10
2.68571e+07		7.11134e-10
2.69258e+07		7.11205e-10
2.69945e+07		7.11277e-10
2.70632e+07		7.11349e-10
2.71318e+07		7.1142e-10
2.72005e+07		7.11492e-10
2.72692e+07		7.11564e-10
2.73379e+07		7.11636e-10
2.74066e+07		7.11707e-10
2.74753e+07		7.11779e-10
2.7544e+07		7.11851e-10
2.76127e+07		7.11922e-10
2.76814e+07		7.11994e-10
2.77501e+07		7.12066e-10
2.78188e+07		7.12138e-10
2.78874e+07		7.1221e-10
2.79561e+07		7.12281e-10
2.80248e+07		7.12353e-10
2.80935e+07		7.12425e-10
2.81622e+07		7.12497e-10
2.82309e+07		7.12569e-10
2.82996e+07		7.12641e-10
2.83683e+07		7.12713e-10
2.8437e+07		7.12784e-10
2.85056e+07		7.12856e-10
2.85743e+07		7.12928e-10
2.8643e+07		7.13e-10
2.87117e+07		7.13072e-10
2.87804e+07		7.13144e-10
2.88491e+07		7.13216e-10
2.89178e+07		7.13288e-10
2.89865e+07		7.1336e-10
2.90552e+07		7.13432e-10
2.91239e+07		7.13504e-10
2.91926e+07		7.13576e-10
2.92612e+07		7.13648e-10
2.93299e+07		7.1372e-10
2.93986e+07		7.13792e-10
2.94673e+07		7.13864e-10
2.9536e+07		7.13936e-10
2.96047e+07		7.14008e-10
2.96734e+07		7.1408e-10
2.97421e+07		7.14152e-10
2.98108e+07		7.14225e-10
2.98794e+07		7.14297e-10
2.99481e+07		7.14369e-10
3.00168e+07		7.14441e-10
3.00855e+07		7.14513e-10
3.01542e+07		7.14585e-10
3.02229e+07		7.14657e-10
3.02916e+07		7.1473e-10
3.03603e+07		7.14802e-10
3.0429e+07		7.14874e-10
3.04977e+07		7.14946e-10
3.05664e+07		7.15018e-10
3.0635e+07		7.15091e-10
3.07037e+07		7.15163e-10
3.07724e+07		7.15235e-10
3.08411e+07		7.15307e-10
3.09098e+07		7.1538e-10
3.09785e+07		7.15452e-10
3.10472e+07		7.15524e-10
3.11159e+07		7.15597e-10
3.11846e+07		7.15669e-10
3.12532e+07		7.15741e-10
3.13219e+07		7.15814e-10
3.13906e+07		7.15886e-10
3.14593e+07		7.15958e-10
3.1528e+07		7.16031e-10
3.15967e+07		7.16103e-10
3.16654e+07		7.16176e-10
3.17341e+07		7.16248e-10
3.18028e+07		7.1632e-10
3.18715e+07		7.16393e-10
3.19402e+07		7.16465e-10
3.20088e+07		7.16538e-10
3.20775e+07		7.1661e-10
3.21462e+07		7.16683e-10
3.22149e+07		7.16755e-10
3.22836e+07		7.16828e-10
3.23523e+07		7.169e-10
3.2421e+07		7.16973e-10
3.24897e+07		7.17045e-10
3.25584e+07		7.17118e-10
3.2627e+07		7.1719e-10
3.26957e+07		7.17263e-10
3.27644e+07		7.17336e-10
3.28331e+07		7.17408e-10
3.29018e+07		7.17481e-10
3.29705e+07		7.17553e-10
3.30392e+07		7.17626e-10
3.31079e+07		7.17699e-10
3.31766e+07		7.17771e-10
3.32453e+07		7.17844e-10
3.3314e+07		7.17917e-10
3.33826e+07		7.17989e-10
3.34513e+07		7.18062e-10
3.352e+07		7.18135e-10
3.35887e+07		7.18207e-10
3.36574e+07		7.1828e-10
3.37261e+07		7.18353e-10
3.37948e+07		7.18426e-10
3.38635e+07		7.18498e-10
3.39322e+07		7.18571e-10
3.40008e+07		7.18644e-10
3.40695e+07		7.18717e-10
3.41382e+07		7.18789e-10
3.42069e+07		7.18862e-10
3.42756e+07		7.18935e-10
3.43443e+07		7.19008e-10
3.4413e+07		7.19081e-10
3.44817e+07		7.19154e-10
3.45504e+07		7.19226e-10
3.46191e+07		7.19299e-10
3.46878e+07		7.19372e-10
3.47564e+07		7.19445e-10
3.48251e+07		7.19518e-10
3.48938e+07		7.19591e-10
3.49625e+07		7.19664e-10
3.50312e+07		7.19737e-10
3.50999e+07		7.1981e-10
3.51686e+07		7.19883e-10
3.52373e+07		7.19956e-10
3.5306e+07		7.20029e-10
3.53746e+07		7.20102e-10
3.54433e+07		7.20175e-10
3.5512e+07		7.20248e-10
3.55807e+07		7.20321e-10
3.56494e+07		7.20394e-10
3.57181e+07		7.20467e-10
3.57868e+07		7.2054e-10
3.58555e+07		7.20613e-10
3.59242e+07		7.20686e-10
3.59929e+07		7.20759e-10
3.60616e+07		7.20832e-10
3.61302e+07		7.20905e-10
3.61989e+07		7.20979e-10
3.62676e+07		7.21052e-10
3.63363e+07		7.21125e-10
3.6405e+07		7.21198e-10
3.64737e+07		7.21271e-10
3.65424e+07		7.21344e-10
3.66111e+07		7.21418e-10
3.66798e+07		7.21491e-10
3.67484e+07		7.21564e-10
3.68171e+07		7.21637e-10
3.68858e+07		7.21711e-10
3.69545e+07		7.21784e-10
3.70232e+07		7.21857e-10
3.70919e+07		7.2193e-10
3.71606e+07		7.22004e-10
3.72293e+07		7.22077e-10
3.7298e+07		7.2215e-10
3.73667e+07		7.22224e-10
3.74354e+07		7.22297e-10
3.7504e+07		7.2237e-10
3.75727e+07		7.22444e-10
3.76414e+07		7.22517e-10
3.77101e+07		7.2259e-10
3.77788e+07		7.22664e-10
3.78475e+07		7.22737e-10
3.79162e+07		7.22811e-10
3.79849e+07		7.22884e-10
3.80536e+07		7.22957e-10
3.81222e+07		7.23031e-10
3.81909e+07		7.23104e-10
3.82596e+07		7.23178e-10
3.83283e+07		7.23251e-10
3.8397e+07		7.23325e-10
3.84657e+07		7.23398e-10
3.85344e+07		7.23472e-10
3.86031e+07		7.23545e-10
3.86718e+07		7.23619e-10
3.87405e+07		7.23692e-10
3.88092e+07		7.23766e-10
3.88778e+07		7.23839e-10
3.89465e+07		7.23913e-10
3.90152e+07		7.23987e-10
3.90839e+07		7.2406e-10
3.91526e+07		7.24134e-10
3.92213e+07		7.24207e-10
3.929e+07		7.24281e-10
3.93587e+07		7.24355e-10
3.94274e+07		7.24428e-10
3.9496e+07		7.24502e-10
3.95647e+07		7.24576e-10
3.96334e+07		7.24649e-10
3.97021e+07		7.24723e-10
3.97708e+07		7.24797e-10
3.98395e+07		7.24871e-10
3.99082e+07		7.24944e-10
3.99769e+07		7.25018e-10
4.00456e+07		7.25092e-10
4.01143e+07		7.25166e-10
4.0183e+07		7.25239e-10
4.02516e+07		7.25313e-10
4.03203e+07		7.25387e-10
4.0389e+07		7.25461e-10
4.04577e+07		7.25535e-10
4.05264e+07		7.25608e-10
4.05951e+07		7.25682e-10
4.06638e+07		7.25756e-10
4.07325e+07		7.2583e-10
4.08012e+07		7.25904e-10
4.08698e+07		7.25978e-10
4.09385e+07		7.26052e-10
4.10072e+07		7.26126e-10
4.10759e+07		7.262e-10
4.11446e+07		7.26274e-10
4.12133e+07		7.26347e-10
4.1282e+07		7.26421e-10
4.13507e+07		7.26495e-10
4.14194e+07		7.26569e-10
4.14881e+07		7.26643e-10
4.15568e+07		7.26717e-10
4.16254e+07		7.26791e-10
4.16941e+07		7.26865e-10
4.17628e+07		7.26939e-10
4.18315e+07		7.27014e-10
4.19002e+07		7.27088e-10
4.19689e+07		7.27162e-10
4.20376e+07		7.27236e-10
4.21063e+07		7.2731e-10
4.2175e+07		7.27384e-10
4.22436e+07		7.27458e-10
4.23123e+07		7.27532e-10
4.2381e+07		7.27606e-10
4.24497e+07		7.27681e-10
4.25184e+07		7.27755e-10
4.25871e+07		7.27829e-10
4.26558e+07		7.27903e-10
4.27245e+07		7.27977e-10
4.27932e+07		7.28051e-10
4.28619e+07		7.28126e-10
4.29306e+07		7.282e-10
4.29992e+07		7.28274e-10
4.30679e+07		7.28348e-10
4.31366e+07		7.28423e-10
4.32053e+07		7.28497e-10
4.3274e+07		7.28571e-10
4.33427e+07		7.28646e-10
4.34114e+07		7.2872e-10
4.34801e+07		7.28794e-10
4.35488e+07		7.28869e-10
4.36174e+07		7.28943e-10
4.36861e+07		7.29017e-10
4.37548e+07		7.29092e-10
4.38235e+07		7.29166e-10
4.38922e+07		7.2924e-10
4.39609e+07		7.29315e-10
4.40296e+07		7.29389e-10
4.40983e+07		7.29464e-10
4.4167e+07		7.29538e-10
4.42357e+07		7.29613e-10
4.43044e+07		7.29687e-10
4.4373e+07		7.29761e-10
4.44417e+07		7.29836e-10
4.45104e+07		7.2991e-10
4.45791e+07		7.29985e-10
4.46478e+07		7.30059e-10
4.47165e+07		7.30134e-10
4.47852e+07		7.30209e-10
4.48539e+07		7.30283e-10
4.49226e+07		7.30358e-10
4.49912e+07		7.30432e-10
4.50599e+07		7.30507e-10
4.51286e+07		7.30581e-10
4.51973e+07		7.30656e-10
4.5266e+07		7.30731e-10
4.53347e+07		7.30805e-10
4.54034e+07		7.3088e-10
4.54721e+07		7.30955e-10
4.55408e+07		7.31029e-10
4.56095e+07		7.31104e-10
4.56782e+07		7.31179e-10
4.57468e+07		7.31253e-10
4.58155e+07		7.31328e-10
4.58842e+07		7.31403e-10
4.59529e+07		7.31478e-10
4.60216e+07		7.31552e-10
4.60903e+07		7.31627e-10
4.6159e+07		7.31702e-10
4.62277e+07		7.31777e-10
4.62964e+07		7.31851e-10
4.6365e+07		7.31926e-10
4.64337e+07		7.32001e-10
4.65024e+07		7.32076e-10
4.65711e+07		7.32151e-10
4.66398e+07		7.32226e-10
4.67085e+07		7.323e-10
4.67772e+07		7.32375e-10
4.68459e+07		7.3245e-10
4.69146e+07		7.32525e-10
4.69833e+07		7.326e-10
4.7052e+07		7.32675e-10
4.71206e+07		7.3275e-10
4.71893e+07		7.32825e-10
4.7258e+07		7.329e-10
4.73267e+07		7.32975e-10
4.73954e+07		7.3305e-10
4.74641e+07		7.33125e-10
4.75328e+07		7.332e-10
4.76015e+07		7.33275e-10
4.76702e+07		7.3335e-10
4.77388e+07		7.33425e-10
4.78075e+07		7.335e-10
4.78762e+07		7.33575e-10
4.79449e+07		7.3365e-10
4.80136e+07		7.33725e-10
4.80823e+07		7.338e-10
4.8151e+07		7.33875e-10
4.82197e+07		7.3395e-10
4.82884e+07		7.34025e-10
4.83571e+07		7.34101e-10
4.84258e+07		7.34176e-10
4.84944e+07		7.34251e-10
4.85631e+07		7.34326e-10
4.86318e+07		7.34401e-10
4.87005e+07		7.34476e-10
4.87692e+07		7.34552e-10
4.88379e+07		7.34627e-10
4.89066e+07		7.34702e-10
4.89753e+07		7.34777e-10
4.9044e+07		7.34853e-10
4.91126e+07		7.34928e-10
4.91813e+07		7.35003e-10
4.925e+07		7.35078e-10
4.93187e+07		7.35154e-10
4.93874e+07		7.35229e-10
4.94561e+07		7.35304e-10
4.95248e+07		7.3538e-10
4.95935e+07		7.35455e-10
4.96622e+07		7.3553e-10
4.97309e+07		7.35606e-10
4.97996e+07		7.35681e-10
4.98682e+07		7.35756e-10
4.99369e+07		7.35832e-10
5.00056e+07		7.35907e-10
5.00743e+07		7.35983e-10
5.0143e+07		7.36058e-10
5.02117e+07		7.36134e-10
5.02804e+07		7.36209e-10
5.03491e+07		7.36285e-10
5.04178e+07		7.3636e-10
5.04864e+07		7.36436e-10
5.05551e+07		7.36511e-10
5.06238e+07		7.36587e-10
5.06925e+07		7.36662e-10
5.07612e+07		7.36738e-10
5.08299e+07		7.36813e-10
5.08986e+07		7.36889e-10
5.09673e+07		7.36964e-10
5.1036e+07		7.3704e-10
5.11047e+07		7.37116e-10
5.11734e+07		7.37191e-10
5.1242e+07		7.37267e-10
5.13107e+07		7.37342e-10
5.13794e+07		7.37418e-10
5.14481e+07		7.37494e-10
5.15168e+07		7.37569e-10
5.15855e+07		7.37645e-10
5.16542e+07		7.37721e-10
5.17229e+07		7.37796e-10
5.17916e+07		7.37872e-10
5.18602e+07		7.37948e-10
5.19289e+07		7.38024e-10
5.19976e+07		7.38099e-10
5.20663e+07		7.38175e-10
5.2135e+07		7.38251e-10
5.22037e+07		7.38327e-10
5.22724e+07		7.38403e-10
5.23411e+07		7.38478e-10
5.24098e+07		7.38554e-10
5.24785e+07		7.3863e-10
5.25472e+07		7.38706e-10
5.26158e+07		7.38782e-10
5.26845e+07		7.38858e-10
5.27532e+07		7.38933e-10
5.28219e+07		7.39009e-10
5.28906e+07		7.39085e-10
5.29593e+07		7.39161e-10
5.3028e+07		7.39237e-10
5.30967e+07		7.39313e-10
5.31654e+07		7.39389e-10
5.3234e+07		7.39465e-10
5.33027e+07		7.39541e-10
5.33714e+07		7.39617e-10
5.34401e+07		7.39693e-10
5.35088e+07		7.39769e-10
5.35775e+07		7.39845e-10
