X,"water.alpha"
0,0.1601
1,0.1601
2,0.1601
3,0.1601
4,0.1601
5,0.1601
6,0.1601
7,0.1601
8,0.1601
9,0.1601
10,0.1601
11,0.1601
12,0.1601
13,0.1601
14,0.1601
15,0.1601
16,0.1601
17,0.1601
18,0.1601
19,0.1601
20,0.1601
21,0.1601
22,0.1601
23,0.1601
24,0.1601
25,0.1601
26,0.1601
27,0.1601
28,0.1601
29,0.1601
30,0.1601
31,0.1601
32,0.1601
33,0.1601
34,0.1601
35,0.1601
36,0.1601
37,0.1601
38,0.1601
39,0.1601
40,0.1601
41,0.1601
42,0.1601
43,0.160811
44,0.404559
45,0.707772
46,0.771593
47,0.774041
48,0.773223
49,0.773551
50,0.773516
51,0.773547
52,0.773583
53,0.773636
54,0.773705
55,0.773788
56,0.773889
57,0.774009
58,0.774147
59,0.774304
60,0.774479
61,0.774671
62,0.774881
63,0.775107
64,0.775347
65,0.775601
66,0.775868
67,0.776147
68,0.776438
69,0.776741
70,0.777054
71,0.777378
72,0.777712
73,0.778057
74,0.778412
75,0.778777
76,0.779153
77,0.779539
78,0.779937
79,0.780345
80,0.780766
81,0.7812
82,0.781647
83,0.782108
84,0.782585
85,0.783078
86,0.783589
87,0.784121
88,0.784673
89,0.785251
90,0.785856
91,0.786492
92,0.787165
93,0.78788
94,0.788647
95,0.789477
96,0.790387
97,0.791407
98,0.792589
99,0.794063
100,0.794896
