X,"water.alpha"
0,0.1601
1,0.1601
2,0.1601
3,0.1601
4,0.1601
5,0.1601
6,0.1601
7,0.1601
8,0.1601
9,0.1601
10,0.1601
11,0.1601
12,0.1601
13,0.1601
14,0.1601
15,0.1601
16,0.1601
17,0.1601
18,0.1601
19,0.1601
20,0.1601
21,0.1601
22,0.1601
23,0.1601
24,0.1601
25,0.1601
26,0.1601
27,0.1601
28,0.1601
29,0.1601
30,0.1601
31,0.1601
32,0.1601
33,0.1601
34,0.1601
35,0.1601
36,0.1601
37,0.1601
38,0.1601
39,0.1601
40,0.1601
41,0.1601
42,0.1601
43,0.1601
44,0.1601
45,0.1601
46,0.1601
47,0.1601
48,0.1601
49,0.1601
50,0.1601
51,0.1601
52,0.1601
53,0.1601
54,0.1601
55,0.1601
56,0.1601
57,0.1601
58,0.1601
59,0.1601
60,0.1601
61,0.1601
62,0.1601
63,0.1601
64,0.161749
65,0.428068
66,0.732602
67,0.772748
68,0.773544
69,0.773741
70,0.773589
71,0.773792
72,0.773929
73,0.774127
74,0.774351
75,0.774619
76,0.774927
77,0.77527
78,0.775648
79,0.776057
80,0.776497
81,0.776966
82,0.777462
83,0.777985
84,0.778536
85,0.779114
86,0.779719
87,0.780356
88,0.781023
89,0.781723
90,0.782462
91,0.783244
92,0.784073
93,0.784959
94,0.785912
95,0.786946
96,0.788086
97,0.789369
98,0.790859
99,0.792714
100,0.79376
