X,"water.alpha"
0,0.1601
1,0.1601
2,0.1601
3,0.1601
4,0.1601
5,0.1601
6,0.1601
7,0.1601
8,0.1601
9,0.1601
10,0.1601
11,0.1601
12,0.1601
13,0.1601
14,0.1601
15,0.1601
16,0.1601
17,0.1601
18,0.1601
19,0.1601
20,0.1601
21,0.1601
22,0.1601
23,0.1601
24,0.1601
25,0.1601
26,0.1601
27,0.1601
28,0.1601
29,0.1601
30,0.1601
31,0.1601
32,0.1601
33,0.1601
34,0.1601
35,0.1601
36,0.1601
37,0.1601
38,0.1601
39,0.1601
40,0.1601
41,0.1601
42,0.1601
43,0.1601
44,0.1601
45,0.1601
46,0.1601
47,0.1601
48,0.1601
49,0.1601
50,0.1601
51,0.1601
52,0.1601
53,0.1601
54,0.1601
55,0.1601
56,0.1601
57,0.1601
58,0.1601
59,0.1601
60,0.1601
61,0.1601
62,0.1601
63,0.1601
64,0.1601
65,0.1601
66,0.1601
67,0.1601
68,0.1601
69,0.1601
70,0.1601
71,0.1601
72,0.1601
73,0.1601
74,0.1601
75,0.1601
76,0.1601
77,0.1601
78,0.1629
79,0.44261
80,0.748754
81,0.775023
82,0.773154
83,0.774123
84,0.774289
85,0.774794
86,0.775275
87,0.775869
88,0.776552
89,0.77731
90,0.77814
91,0.779046
92,0.780035
93,0.781112
94,0.782288
95,0.783579
96,0.785014
97,0.786646
98,0.788567
99,0.790989
100,0.792361
