X,"water.alpha"
0,0.1601
1,0.1601
2,0.1601
3,0.1601
4,0.1601
5,0.1601
6,0.1601
7,0.1601
8,0.1601
9,0.1601
10,0.1601
11,0.1601
12,0.1601
13,0.1601
14,0.1601
15,0.1601
16,0.1601
17,0.1601
18,0.1601
19,0.1601
20,0.1601
21,0.1601
22,0.1601
23,0.1601
24,0.1601
25,0.1601
26,0.1601
27,0.1601
28,0.1601
29,0.1601
30,0.1601
31,0.1601
32,0.1601
33,0.1601
34,0.1601
35,0.1601
36,0.1601
37,0.1601
38,0.1601
39,0.1601
40,0.1601
41,0.1601
42,0.1601
43,0.1601
44,0.1601
45,0.1601
46,0.1601
47,0.1601
48,0.1601
49,0.1601
50,0.184459
51,0.461669
52,0.73658
53,0.761153
54,0.764727
55,0.766423
56,0.767508
57,0.768322
58,0.76899
59,0.769568
60,0.77009
61,0.770575
62,0.771035
63,0.771478
64,0.771908
65,0.77233
66,0.772747
67,0.77316
68,0.773573
69,0.773986
70,0.7744
71,0.774817
72,0.775238
73,0.775662
74,0.776092
75,0.776528
76,0.776969
77,0.777419
78,0.777877
79,0.778343
80,0.77882
81,0.779307
82,0.779807
83,0.78032
84,0.780847
85,0.78139
86,0.781951
87,0.782531
88,0.783133
89,0.78376
90,0.784416
91,0.785105
92,0.785832
93,0.786603
94,0.787429
95,0.788324
96,0.789307
97,0.790412
98,0.7917
99,0.793318
100,0.794237
